{
  "name": "icons",
  "css_prefix_text": "icon-",
  "css_use_suffix": false,
  "hinting": true,
  "units_per_em": 1000,
  "ascent": 850,
  "glyphs": [
    {
      "uid": "aec47313ed60b45181173a798d5cf25b",
      "css": "checkbox",
      "code": 59392,
      "src": "custom_icons",
      "selected": true,
      "svg": {
        "path": "M888.9 111.1V888.9H111.1V111.1H888.9M888.9 0H111.1C50 0 0 50 0 111.1V888.9C0 950 50 1000 111.1 1000H888.9C950 1000 1000 950 1000 888.9V111.1C1000 50 950 0 888.9 0L888.9 0Z",
        "width": 1000
      },
      "search": [
        "checkbox"
      ]
    },
    {
      "uid": "e1c76be7f83e2f83ed8b1e6e449c709c",
      "css": "checkbox-checked",
      "code": 59393,
      "src": "custom_icons",
      "selected": true,
      "svg": {
        "path": "M272.2 394.4L194.4 472.2 444.4 722.2 1000 166.7 922.2 88.9 444.4 566.7 272.2 394.4ZM888.9 888.9H111.1V111.1H666.7V0H111.1C50 0 0 50 0 111.1V888.9C0 950 50 1000 111.1 1000H888.9C950 1000 1000 950 1000 888.9V444.4H888.9V888.9Z",
        "width": 1000
      },
      "search": [
        "checkbox-checked"
      ]
    },
    {
      "uid": "97c0ee2bff1fb25078ce15f4fe963944",
      "css": "radio",
      "code": 59394,
      "src": "custom_icons",
      "selected": true,
      "svg": {
        "path": "M500 0C225 0 0 225 0 500S225 1000 500 1000 1000 775 1000 500 775 0 500 0ZM500 900C280 900 100 720 100 500S280 100 500 100 900 280 900 500 720 900 500 900Z",
        "width": 1000
      },
      "search": [
        "radio"
      ]
    },
    {
      "uid": "453d845f85df02fbafca597181130dd3",
      "css": "radio-checked",
      "code": 59395,
      "src": "custom_icons",
      "selected": true,
      "svg": {
        "path": "M500 250C360 250 250 360 250 500 250 640 360 750 500 750 640 750 750 640 750 500 750 360 640 250 500 250ZM500 0C225 0 0 225 0 500S225 1000 500 1000 1000 775 1000 500 775 0 500 0ZM500 900C280 900 100 720 100 500S280 100 500 100 900 280 900 500 720 900 500 900Z",
        "width": 1000
      },
      "search": [
        "radio-checked"
      ]
    },
    {
      "uid": "e82cedfa1d5f15b00c5a81c9bd731ea2",
      "css": "info-circled",
      "code": 59396,
      "src": "fontawesome"
    },
    {
      "uid": "b035c28eba2b35c6ffe92aee8b0df507",
      "css": "attention-circled",
      "code": 59397,
      "src": "fontawesome"
    },
    {
      "uid": "c76b7947c957c9b78b11741173c8349b",
      "css": "attention",
      "code": 59398,
      "src": "fontawesome"
    },
    {
      "uid": "0f4cae16f34ae243a6144c18a003f2d8",
      "css": "cancel-circled",
      "code": 59399,
      "src": "fontawesome"
    },
    {
      "uid": "ccddff8e8670dcd130e3cb55fdfc2fd0",
      "css": "down-open",
      "code": 59400,
      "src": "fontawesome"
    },
    {
      "uid": "d870630ff8f81e6de3958ecaeac532f2",
      "css": "left-open",
      "code": 59401,
      "src": "fontawesome"
    },
    {
      "uid": "399ef63b1e23ab1b761dfbb5591fa4da",
      "css": "right-open",
      "code": 59402,
      "src": "fontawesome"
    },
    {
      "uid": "fe6697b391355dec12f3d86d6d490397",
      "css": "up-open",
      "code": 59403,
      "src": "fontawesome"
    },
    {
      "uid": "829c06a0a3b73b02a6224f4bbb73d99c",
      "css": "home",
      "code": 59404,
      "src": "elusive"
    },
    {
      "uid": "499b745a2e2485bdd059c3a53d048e5f",
      "css": "cancel",
      "code": 59405,
      "src": "elusive"
    },
    {
      "uid": "jh3jpcb1t1bcm80gidkadilh080aq79h",
      "css": "menu-1",
      "code": 59406,
      "src": "typicons"
    },
    {
      "uid": "e45a3da2ebde8bc8e30a873f3bd51f30",
      "css": "eye",
      "code": 59407,
      "src": "elusive"
    },
    {
      "uid": "62b0580ee8edc3a3edfbf68a47c852d5",
      "css": "pencil",
      "code": 59408,
      "src": "elusive"
    },
    {
      "uid": "cb89a11fa3722b7648ce26f40aaed8f0",
      "css": "website",
      "code": 59409,
      "src": "elusive"
    },
    {
      "uid": "cc8e2a0eff0356811984b84a868524f8",
      "css": "check-empty",
      "code": 59410,
      "src": "elusive"
    },
    {
      "uid": "34e5d8943b23023d2a9515cfa9173506",
      "css": "quote",
      "code": 59411,
      "src": "elusive"
    },
    {
      "uid": "173dc34e39eeb98cb748ccc1800a4fcc",
      "css": "quote-circled",
      "code": 59412,
      "src": "elusive"
    },
    {
      "uid": "240979dd9fcf2e46250e66792edb8092",
      "css": "facebook",
      "code": 62208,
      "src": "brandico"
    },
    {
      "uid": "d40cdb5206db6b98a47d84af6450c692",
      "css": "logo",
      "code": 59413,
      "src": "custom_icons",
      "selected": true,
      "svg": {
        "path": "M281.7 23C280.6 34.3 279.7 43.7 279.7 43.9 279.7 44.1 278.6 45 277.3 45.9 271.5 49.7 269.5 58 273 64 274 65.6 275.3 67.3 275.9 67.7 277 68.5 276.8 70.3 272 118L267 167.4 259.6 176.3 252.2 185.2 252.2 209.1 252.2 233.1 254.7 236.9 257.2 240.6 128.6 240.8 0 240.9 0 617.6 0 994.4 131.1 994.4 262.2 994.4 262.2 938.2C262.2 904.3 262.5 879.8 262.8 876.4 264.1 865.7 267.3 856.4 273 847.7 276.6 842.3 282.5 835.9 285.5 834.4 287.4 833.4 287.9 833.6 293.6 838.1 299.2 842.6 306.6 853.9 309.5 862.5 312.8 872.5 312.8 872.5 312.9 935.7L312.9 994.4 443.1 994.4 573.2 994.4 573.2 617.6 573.2 240.9 441.8 240.9 310.4 240.9 313.5 236.6 316.6 232.3 316.6 208.3 316.6 184.3 314 180.9C312.5 179 309.6 175.2 307.4 172.4L303.6 167.4 297.8 118.1 292.1 68.7 294 66.8C296.8 63.8 297.9 61.1 297.9 57.3 297.9 52.1 295.3 47.9 290.2 44.7 289.4 44.2 288.7 40.1 286.9 23.8 285.6 12.6 284.4 3.3 284.2 3 283.9 2.7 282.9 11.7 281.7 23ZM257.8 254.1C257.8 254.5 256.8 258.9 255.5 263.8L253.3 272.8 245.4 279.3C217.5 302.3 193.4 330.2 174.5 361.6 169.5 369.8 162.4 383 163 383 163.1 383 168 381.6 173.7 379.8 240.6 359.6 306.4 357.2 373.8 372.4 385.8 375.1 404.2 380.3 414.8 383.9 418.5 385.1 421.5 386.1 421.6 386.1 422.4 386.1 400.2 358.3 390.8 347.6 368.1 321.7 336.8 291.6 314.6 274.3 313.2 273.2 312.8 271.9 311.1 264 310 259 309.1 254.6 309.1 254.2 309.1 253.6 336.2 253.4 434.6 253.4L560.1 253.4 560.1 531.5 560.1 809.6 517.7 790.6C494.4 780.1 456 762.9 432.4 752.3L389.5 733.1 402.1 732.9 414.5 732.8 455 750.9C477.3 760.9 495.6 769.1 495.9 769.1 496.1 769.1 496.2 710.3 496.2 638.4L496.2 507.7 500.1 498.7C505.1 486.7 508.4 476.7 509.9 469 511.3 462.5 512.5 450.6 512.5 445.2 512.5 442.4 512.3 441.9 509.8 439.9 502.4 433.6 463.4 413.9 438.4 403.8 336 362.5 234.9 363 134.5 405.2 112 414.7 82.9 429.7 68.5 439.4L64.1 442.3 64.6 449.7C66.2 474.5 71.5 494.1 79.2 504.1L81.7 507.2 82 638.4 82.3 769.6 123.3 751.2 164.3 732.8 176.8 732.9 189.3 733.1 101.7 772.4C53.5 794.1 13.7 811.9 13.3 812.1 12.7 812.3 12.5 756.3 12.5 532.9L12.5 253.4 135.2 253.4C224.1 253.4 257.8 253.6 257.8 254.1ZM207.4 471.8C212.1 477.9 215.1 483.4 217.3 489.5L219.3 495.3 219.5 549.8 219.7 604.3 205.1 600.8 190.6 597.2 190.6 545.3C190.6 497.1 190.6 493.1 191.7 489.4 193.4 483 197.4 475.5 200.9 471.6 202.7 469.6 204.3 468.1 204.3 468.1 204.4 468.1 205.9 469.8 207.4 471.8ZM370 471.2C375.3 477.1 379.2 485.8 380.5 494.7 380.9 498.1 381.1 514.9 381 548.4L380.8 597.1 366.3 600.8 351.7 604.3 351.7 551.9C351.7 494.1 351.7 494.1 355.6 485.2 357.4 480.9 365.8 468.1 366.8 468.1 367 468.1 368.5 469.5 370 471.2ZM290.5 642.3C294.4 645.3 299.8 652.6 302.8 658.9 307.8 669.3 307.5 666.5 307.8 716.6L307.9 761.6 287.9 761.6 267.8 761.6 268 715.7 268.1 669.9 269.9 665C272 659.1 273.4 656.3 277 650.6 280 646.1 285.5 640.2 286.9 640.2 287.3 640.2 288.9 641.1 290.5 642.3ZM324.5 798.9L361.8 820.1 325.2 820.3C305.1 820.3 271.9 820.3 251.6 820.3L214.5 820.1 250.8 799C270.7 787.4 287 777.8 287.2 777.8 287.3 777.8 304.1 787.4 324.5 798.9ZM834.2 242.2C812.7 244 792.8 250 780.4 258.4 771.5 264.5 762.8 274.7 758.1 284.5 748.1 305.8 746.2 341.9 754 366.1 762.4 392.2 782.6 407.8 814.8 413.3 828.3 415.5 832.3 415.7 885.2 416.1 936.8 416.6 938.5 416.6 943.6 417.9 949.9 419.6 954.3 421.7 957.9 425.1 963.6 430.4 966.2 437.9 966.2 449.6 966.2 470.7 956.6 480 932.1 482.4 927.6 482.9 898.1 483.1 843.1 483.1L761 483.1 761 509.4 761 535.7 854.4 535.5C954.4 535.2 951.3 535.4 966.7 532.2 997.5 525.8 1017 510.9 1025.7 486.9 1032.7 467.8 1034 440.3 1029 418 1025.9 404 1021 394.4 1012.6 386 1001.7 375.2 988.6 369.5 966.7 366 958.8 364.7 955.4 364.6 900.8 364.2 848.4 363.8 842.9 363.7 838.9 362.6 825.4 359.3 817.5 351.7 815.5 340.2 814.5 334.9 814.6 327.4 815.8 321.8 819 305.8 830 297.2 850.4 294.7 853.8 294.4 884.7 294.1 936.6 294.1L1017.5 294.1 1017.5 267.8 1017.5 241.6 929.2 241.6C880.5 241.7 837.8 242 834.2 242.2ZM1062 267.2L1062 292.9 1109.8 292.9 1157.7 292.9 1157.7 414.3 1157.7 535.7 1190.2 535.7 1222.8 535.7 1222.8 414.3 1222.8 292.9 1271 292.9 1319.1 292.9 1319.1 267.2 1319.1 241.6 1190.6 241.6 1062 241.6 1062 267.2ZM1410.3 242C1409.8 243 1284.7 535 1284.7 535.3 1284.7 535.5 1299.6 535.7 1317.8 535.7L1350.8 535.7 1364 500.8 1377.2 465.9 1441.9 465.7 1506.7 465.6 1520.3 500.6 1534 535.7 1568.9 535.7 1603.8 535.7 1593.8 512.6C1588.4 500 1559.8 433.9 1530.5 365.8L1477 241.9 1443.8 241.7C1425.5 241.6 1410.5 241.7 1410.3 242ZM1463.6 356.2C1475.8 386.6 1485.9 411.8 1486 412.2 1486.3 412.8 1477.3 413 1442.2 413 1417.9 413 1398 412.8 1398 412.6 1398 411.7 1440.9 301 1441.2 301 1441.4 301 1451.5 325.8 1463.6 356.2ZM1587.2 242.6C1587.4 243.2 1616.6 309.3 1651.9 389.5L1716.3 535.4 1748.8 535.4 1781.3 535.4 1843.4 388.6C1877.5 307.9 1905.4 241.8 1905.5 241.7 1905.5 241.6 1890.5 241.6 1872.1 241.6L1838.7 241.6 1793.1 350.8C1768 410.8 1747.4 459.9 1747.2 459.9 1747 459.9 1727.2 411.7 1703.1 352.8 1679 293.9 1658.9 244.7 1658.4 243.6L1657.4 241.6 1622.2 241.6C1588.9 241.6 1586.9 241.6 1587.2 242.6ZM1935.5 388.6L1935.5 535.7 2027.1 535.5C2110 535.3 2119.3 535.2 2125.8 534.2 2152.4 530.2 2166.8 524.1 2179.3 511.6 2186.9 504 2190.9 497.4 2194.2 487.7 2197.2 478.4 2198.4 471.4 2198.8 459.6 2199.6 435.7 2194.3 419.7 2180.9 406.1 2174.5 399.6 2168.1 395.1 2159.5 391L2154.1 388.4 2159.5 385.3C2183 371.9 2195.1 353.7 2197.7 327.7 2200.4 302.6 2192.8 280.2 2176.6 264.6 2163.1 251.6 2150.1 246.4 2123 243 2115.9 242.1 2102.9 241.9 2025.2 241.7L1935.5 241.5 1935.5 388.6ZM2108.7 296.7C2121.2 300.6 2127.8 307.8 2129.9 319.7 2131 325.8 2131 330.7 2129.8 336.9 2128.1 346.9 2123.1 353.6 2114.3 357.6 2105.1 362 2106.1 361.9 2049.3 362.1L1998.1 362.4 1998.1 328.5 1998.1 294.7 2050.9 294.9 2103.6 295.1 2108.7 296.7ZM2107.8 416C2121 419.7 2127.9 426.7 2130.4 438.9 2133 451.2 2130.7 464.6 2124.7 472.2 2120.2 477.9 2110.6 482 2099.1 483.1 2095.1 483.5 2072.4 483.7 2045.2 483.7L1998.1 483.7 1998.1 449 1998.1 414.2 2050.6 414.4C2102.3 414.6 2103 414.6 2107.8 416ZM2347.7 242C2347.2 243 2222.2 535 2222.2 535.3 2222.2 535.5 2237 535.7 2255.2 535.7L2288.2 535.7 2301.4 500.8 2314.6 465.9 2379.3 465.7 2444.1 465.6 2457.8 500.6 2471.5 535.7 2506.3 535.7 2541.2 535.7 2532.2 514.8C2527.2 503.4 2498.7 437.3 2468.8 368L2414.4 241.9 2381.2 241.7C2363 241.6 2347.9 241.7 2347.7 242ZM2401.1 356.2C2413.2 386.6 2423.3 411.8 2423.5 412.2 2423.7 412.8 2414.7 413 2379.6 413 2355.3 413 2335.4 412.8 2335.4 412.5 2335.4 411.6 2378.3 301 2378.6 301 2378.8 301 2388.9 325.8 2401.1 356.2ZM2093.9 615.3C2093.9 615.4 2102.8 628.1 2113.8 643.6L2133.6 671.8 2157.7 671.9 2181.8 672.1 2201.5 644.1C2212.3 628.7 2221.3 616 2221.4 615.6 2221.5 615.4 2215.1 615.1 2207.1 615.1L2192.7 615.1 2175.3 629.8C2165.8 637.9 2157.9 644.6 2157.7 644.6 2157.5 644.5 2149.6 637.9 2140.2 629.8L2123 615.1 2108.4 615.1C2100.4 615.1 2093.9 615.2 2093.9 615.3ZM3069.6 692.9C3056 693.9 3043 700.8 3034.4 711.3 3029.7 717.2 3026.8 722.3 3024.3 729.7 3022.3 735.4 3022.2 735.9 3022.2 745.6 3022.2 755.5 3022.3 755.7 3024.5 762 3029.3 775.8 3037.8 785.6 3050.8 792.5 3058 796.4 3063.9 797.9 3072.6 798.3 3081.1 798.7 3087.3 797.7 3094.9 794.7 3107.5 789.9 3119.1 779.1 3124.3 767.4 3127.7 759.8 3128.6 755.1 3128.5 745.3 3128.5 737.4 3128.3 735.5 3126.8 730.7 3123.9 721.1 3119.6 714.1 3112.6 707.4 3100.8 696.2 3087 691.6 3069.6 692.9ZM3090.2 703.8C3104.1 708.6 3115 720.5 3118.7 734.7 3120.3 741 3120.2 751.9 3118.3 757.8 3115.5 767 3110.8 773.9 3103.7 779.5 3098.4 783.6 3093.9 786 3087.6 788 3081.5 789.9 3069.3 790.1 3063.6 788.3 3030.9 778.2 3020.1 740.3 3042.8 715.5 3046.9 711 3052.1 707.2 3057.4 704.9 3063.6 702.1 3067.2 701.5 3076.3 701.7 3083.9 701.9 3085.4 702.1 3090.2 703.8ZM3053.2 744.7L3053.2 774.1 3060.4 774.1 3067.6 774.1 3067.6 761.9 3067.6 749.6 3071.2 749.8 3074.7 750 3080.4 762 3086 774.1 3094 774.1 3102 774.1 3095.4 761 3088.9 747.9 3091.9 746.6C3098.1 743.8 3101.6 738.7 3101.6 732.2 3101.6 725.7 3098.9 721 3093.7 718.3 3088.9 715.8 3084.3 715.3 3068.4 715.3L3053.2 715.3 3053.2 744.7ZM3082.1 725.5C3088.1 728 3088.4 736.9 3082.6 739.8 3081 740.7 3078.8 740.9 3074 740.9L3067.6 740.9 3067.6 732.4 3067.6 723.8 3073.7 724.2C3077.1 724.3 3080.8 724.9 3082.1 725.5ZM1786 693.7C1762.5 695 1745.1 697.9 1729 703.6 1684 719.2 1658 753.5 1650.3 807.6 1647.8 824.6 1647.1 843.2 1648.3 862.3 1650.6 898.9 1658.4 926.5 1672.8 948.4 1678.8 957.5 1691.6 970.4 1700.6 976.3 1720.9 989.8 1745.1 997.1 1777.5 999.4 1788.5 1000.3 1813.8 999.9 1823.2 998.7 1881.5 992.1 1916 967.9 1933.4 921.5 1943.7 893.8 1947.4 850.4 1942.7 812.1 1938.2 775.1 1925.4 746.7 1904.9 727.7 1885 709.2 1858.4 698.6 1823.4 695 1814.3 694.1 1793.4 693.4 1786 693.7ZM1815.1 745.6C1851.1 752.1 1870.2 776.2 1875.6 822.6 1876.8 832.9 1876.6 863 1875.2 873.2 1869.3 918.3 1849.7 942.1 1814.1 947.7 1792.2 951.1 1770.4 948.4 1755.1 940.3 1733.4 928.9 1721.3 906 1717.4 869.2 1716.1 856.6 1716.5 825.3 1718 815.7 1721.8 792.3 1728.5 776.9 1739.8 765 1750.8 753.4 1765 746.9 1784.4 744.6 1790.9 743.9 1808.6 744.4 1815.1 745.6ZM720.3 700.1C720.3 700.4 749.4 766.5 784.9 847.1L849.5 993.4 882 993.6 914.6 993.7 973 855.3C1005.2 779.2 1031.7 716.6 1031.9 716.5 1032 716.2 1055.3 749.3 1083.4 790.1L1134.5 864.1 1134.5 928.9 1134.5 993.7 1165.8 993.7 1197.1 993.7 1197.1 928.9 1197.1 864.1 1254.4 782.2C1285.9 737.2 1311.6 700.2 1311.6 700 1311.6 699.7 1295.4 699.7 1275.5 699.7L1239.4 699.9 1202.3 755.6C1181.9 786.3 1165.1 811.3 1164.8 811.3 1164.5 811.2 1147.9 786.2 1127.9 755.6L1091.6 699.9 1031.9 699.7 972.1 699.6 926.4 808.8C901.3 868.8 880.6 918 880.4 918 880.2 918 860 868.9 835.4 808.8L790.8 699.6 755.6 699.6C736.2 699.6 720.3 699.9 720.3 700.1ZM1410.8 700.3C1378.4 702.5 1354.4 712.3 1341 728.9 1328.7 744.1 1323.3 762.6 1323.4 789.7 1323.4 816.3 1328.8 833.7 1341.5 848.4 1350.7 858.9 1366.3 867 1385.1 870.8 1399.4 873.6 1402.3 873.8 1458.1 874.2 1514.6 874.7 1514.1 874.7 1522.5 877.7 1531.7 880.9 1537.3 887.6 1539.4 897.7 1540.4 902.6 1540.4 913.8 1539.4 918.1 1536.7 929.4 1529 936.2 1514.9 939.5 1509.1 940.8 1508.4 940.8 1422.3 941L1335.4 941.2 1335.4 967.5 1335.4 993.8 1429.5 993.6C1530.4 993.4 1525.3 993.5 1541.6 990.2 1548.6 988.9 1559.4 985.3 1565.4 982.4 1579.4 975.7 1590.1 965.3 1596.6 952.1 1602.9 939.4 1605.1 928.5 1605.6 908.9 1606.3 878.8 1600.9 859.5 1588 845.6 1576.8 833.6 1562.1 827.3 1537.2 823.7 1531.6 822.9 1520 822.7 1473.4 822.3 1417.8 821.9 1416.3 821.8 1411.6 820.6 1395.4 816 1387.9 805.2 1388.9 787.7 1390.1 766.1 1401.1 755.6 1425.8 752.9 1429.7 752.4 1459.2 752.2 1511.6 752.2L1591.4 752.2 1591.4 725.9 1591.4 699.6 1504.9 699.7C1457.3 699.7 1415 700.1 1410.8 700.3ZM2105.8 700.3C2065.3 703 2034 716.6 2014.5 739.9 1996.9 760.8 1986.7 790.2 1983.7 828 1982.7 840.9 1983.2 873.1 1984.6 882.9 1987.2 901.3 1991.9 917.3 1998.7 931 2007.8 949.3 2019.3 962.3 2036.5 973.7 2052 984.1 2065.5 989 2087.3 992.3 2093.3 993.2 2102.9 993.4 2160.7 993.6L2227.2 993.8 2227.2 968.1 2227.2 942.4 2170.4 942.4C2109.8 942.4 2106.4 942.2 2095 939.2 2087.9 937.4 2078.1 932.6 2073.3 928.5 2061.9 918.8 2055.5 903.9 2052.4 879.8 2051.2 869.6 2051.4 834.4 2052.8 823.2 2056.2 796.7 2062.5 780 2073.5 768.6 2081.7 759.9 2091.2 754.9 2105.1 751.8 2109.3 750.8 2116.6 750.7 2168.5 750.5L2227.2 750.3 2227.2 725 2227.2 699.6 2170.4 699.7C2139.1 699.7 2110.1 700.1 2105.8 700.3ZM2287.7 700.1C2287.4 700.3 2287.2 766.5 2287.2 847.1L2287.2 993.7 2320.1 993.7 2352.9 993.7 2352.9 846.7 2352.9 699.6 2320.5 699.6C2302.7 699.6 2287.9 699.8 2287.7 700.1ZM2429.1 700.1C2428.8 700.3 2428.7 766.5 2428.7 847.1L2428.7 993.7 2460.9 993.7 2493.1 993.7 2493.1 988.5C2493.1 985.7 2492.6 940.2 2491.9 887.4 2491.1 834.5 2490.7 787.1 2490.7 782L2490.9 772.7 2554.5 883 2618.1 993.4 2654.5 993.6 2690.9 993.7 2690.9 846.7 2690.9 699.6 2658.9 699.6 2627 699.6 2627 703.2C2627.1 705.2 2627.7 752.6 2628.5 808.5 2629.3 864.5 2629.9 910.3 2629.8 910.4 2629.8 910.5 2602.4 863.1 2569 805.3L2508.3 699.9 2468.9 699.7C2447.2 699.7 2429.3 699.8 2429.1 700.1ZM2718.6 700.4C2718.8 700.9 2744.2 738 2775.3 782.8L2831.7 864.3 2831.7 929 2831.7 993.7 2863 993.7 2894.2 993.7 2894.2 928.8 2894.2 863.9 2951.5 782C2983 737 3008.8 700 3008.8 699.9 3008.8 699.7 2992.5 699.6 2972.7 699.6L2936.5 699.6 2899.2 755.6C2878.8 786.4 2861.9 811.6 2861.7 811.6 2861.5 811.6 2844.9 786.4 2824.8 755.6L2788.3 699.6 2753.3 699.6C2724.5 699.6 2718.3 699.7 2718.6 700.4Z",
        "width": 3129
      },
      "search": [
        "logo-(2)"
      ]
    },
    {
      "uid": "d3791f2e9735bbc8566135d0635c564a",
      "css": "arr-left",
      "code": 59414,
      "src": "custom_icons",
      "selected": true,
      "svg": {
        "path": "M836.3 0.2C834.7 0.5 832.9 1.1 831.4 1.8 829.5 2.7 8.3 484.9 7.2 485.7-0.4 491.4-2.2 501.8 3 509.8 3.9 511.2 5.8 513.2 7.1 514.2 7.7 514.6 14.5 518.7 22.2 523.2 30 527.8 215 636.4 433.3 764.5 651.6 892.7 830.7 997.8 831.3 998.1 836.1 1000.5 842.3 1000.5 847.3 998 851.9 995.6 855.1 991.6 856.5 986.2L856.9 984.7 857 500.7C857 71.5 857 16.4 856.8 15.2 856.2 11.2 854.4 7.8 851.5 5 850 3.6 848.8 2.7 847.1 1.9 843.8 0.2 840-0.3 836.3 0.2ZM821.3 499.9C821.3 894.1 821.3 950.9 821.1 950.9 821 950.8 659 855.8 461.2 739.6 91.3 522.5 70.9 510.5 59.7 503.9 53.4 500.2 53.1 500 53.4 499.8 53.8 499.6 821.2 49 821.3 49 821.3 49 821.3 251.9 821.3 499.9Z",
        "width": 857
      },
      "search": [
        "arr-left-(3)"
      ]
    },
    {
      "uid": "fb60348b5cb73973c68e42ca9f068d97",
      "css": "arr-right",
      "code": 59415,
      "src": "custom_icons",
      "selected": true,
      "svg": {
        "path": "M15.2 0.2C12.7 0.6 10 1.7 7.9 3.1 6.5 4 4.5 6 3.5 7.4 1.9 9.7 0.8 12.4 0.4 15.2 0.2 16.4 0.1 71.5 0.2 500.7L0.2 984.7 0.6 986.2C2.1 991.6 5.2 995.6 9.9 998 14.8 1000.5 21.1 1000.5 25.9 998.1 26.5 997.8 205.6 892.7 423.9 764.5 642.2 636.4 827.2 527.8 834.9 523.2 842.7 518.7 849.5 514.6 850 514.2 851.4 513.2 853.3 511.2 854.2 509.8 856.3 506.6 857.3 503.1 857.1 499.3 856.9 493.8 854.4 489 850 485.7 848.8 484.9 27.6 2.7 25.7 1.8 22.6 0.2 18.7-0.3 15.2 0.2ZM420.3 274.7C631.2 398.5 803.9 499.9 803.9 499.9 804 500 801.1 501.8 797.5 503.9 786.3 510.5 765.9 522.4 396 739.6 198.1 855.8 36.2 950.8 36.1 950.9 35.9 950.9 35.9 894.1 35.9 499.9L35.9 48.9 36.3 49.2C36.6 49.4 209.4 150.8 420.3 274.7Z",
        "width": 857
      },
      "search": [
        "arr-right-(3)"
      ]
    },
    {
      "uid": "20370af73ca90f73b4bda366d92303d9",
      "css": "play",
      "code": 59416,
      "src": "elusive"
    }
  ]
}